…
    ## v ggplot2 3.3.5     v purrr   0.3.4
    ## v tibble  3.1.6     v dplyr   1.0.8
    ## v tidyr   1.2.0     v stringr 1.4.0
    ## v readr   2.1.2     v forcats 0.5.1

    ## -- Conflicts ------------------------------------------ tidyverse_conflicts() --
    ## x dplyr::filter() masks stats::filter()
    ## x dplyr::lag()    masks stats::lag()

``` r
relig_income %>%
  pivot_longer(cols= -religion, names_to="income_range",values_to="income")
```

    ## # A tibble: 180 x 3
    ##    religion income_range       income
    ##    <chr>    <chr>               <dbl>
    ##  1 Agnostic <$10k                  27
    ##  2 Agnostic $10-20k                34
    ##  3 Agnostic $20-30k                60
    ##  4 Agnostic $30-40k                81
    ##  5 Agnostic $40-50k                76
    ##  6 Agnostic $50-75k               137
    ##  7 Agnostic $75-100k              122
    ##  8 Agnostic $100-150k             109
    ##  9 Agnostic >150k                  84
    ## 10 Agnostic Don't know/refused     96
    ## # ... with 170 more rows
…
``` r
# Display the diamond count by cut and color. Include only the rows with a diamond count greater than 300.

diamonds%>%
  group_by(cut,color) %>%
  summarize(count_records=n())%>%
  filter(count_records>300)
```

    ## `summarise()` has grouped output by 'cut'. You can override using the `.groups`
    ## argument.

    ## # A tibble: 31 x 3
    ## # Groups:   cut [5]
    ##    cut   color count_records
    ##    <ord> <ord>         <int>
    ##  1 Fair  F               312
    ##  2 Fair  G               314
    ##  3 Fair  H               303
    ##  4 Good  D               662
    ##  5 Good  E               933
    ##  6 Good  F               909
    ##  7 Good  G               871
    ##  8 Good  H               702
    ##  9 Good  I               522
    ## 10 Good  J               307
    ## # ... with 21 more rows
…
-   \_if affects variables selected with a predicate function:

``` r
# using mutate_at add $10 to the price
# This is the syntax of mutate_at
# mutate_at(.tbl, .vars, .funs, ..., .cols = NULL) 

increment_10 <- function(x) { x + 10}
diamonds %>% 
  mutate_at(.vars = c("price"), 
            .funs = increment_10)
```

    ## # A tibble: 53,940 x 10
    ##    carat cut       color clarity depth table price     x     y     z
    ##    <dbl> <ord>     <ord> <ord>   <dbl> <dbl> <dbl> <dbl> <dbl> <dbl>
    ##  1  0.23 Ideal     E     SI2      61.5    55   336  3.95  3.98  2.43
    ##  2  0.21 Premium   E     SI1      59.8    61   336  3.89  3.84  2.31
    ##  3  0.23 Good      E     VS1      56.9    65   337  4.05  4.07  2.31
    ##  4  0.29 Premium   I     VS2      62.4    58   344  4.2   4.23  2.63
    ##  5  0.31 Good      J     SI2      63.3    58   345  4.34  4.35  2.75
    ##  6  0.24 Very Good J     VVS2     62.8    57   346  3.94  3.96  2.48
    ##  7  0.24 Very Good I     VVS1     62.3    57   346  3.95  3.98  2.47
    ##  8  0.26 Very Good H     SI1      61.9    55   347  4.07  4.11  2.53
    ##  9  0.22 Fair      E     VS2      65.1    61   347  3.87  3.78  2.49
    ## 10  0.23 Very Good H     VS1      59.4    61   348  4     4.05  2.39
    ## # ... with 53,930 more rows

``` r
diamonds %>% 
  mutate_at(.vars = c("price"), 
            .funs = function(x) x + 10)
```

    ## # A tibble: 53,940 x 10
    ##    carat cut       color clarity depth table price     x     y     z
    ##    <dbl> <ord>     <ord> <ord>   <dbl> <dbl> <dbl> <dbl> <dbl> <dbl>
    ##  1  0.23 Ideal     E     SI2      61.5    55   336  3.95  3.98  2.43
    ##  2  0.21 Premium   E     SI1      59.8    61   336  3.89  3.84  2.31
    ##  3  0.23 Good      E     VS1      56.9    65   337  4.05  4.07  2.31
    ##  4  0.29 Premium   I     VS2      62.4    58   344  4.2   4.23  2.63
    ##  5  0.31 Good      J     SI2      63.3    58   345  4.34  4.35  2.75
    ##  6  0.24 Very Good J     VVS2     62.8    57   346  3.94  3.96  2.48
    ##  7  0.24 Very Good I     VVS1     62.3    57   346  3.95  3.98  2.47
    ##  8  0.26 Very Good H     SI1      61.9    55   347  4.07  4.11  2.53
    ##  9  0.22 Fair      E     VS2      65.1    61   347  3.87  3.78  2.49
    ## 10  0.23 Very Good H     VS1      59.4    61   348  4     4.05  2.39
    ## # ... with 53,930 more rows

``` r
diamonds %>% 
  mutate_at(.vars = c("price", "depth"), 
            .funs = function(x) x + 10)
```

    ## # A tibble: 53,940 x 10
    ##    carat cut       color clarity depth table price     x     y     z
    ##    <dbl> <ord>     <ord> <ord>   <dbl> <dbl> <dbl> <dbl> <dbl> <dbl>
    ##  1  0.23 Ideal     E     SI2      71.5    55   336  3.95  3.98  2.43
    ##  2  0.21 Premium   E     SI1      69.8    61   336  3.89  3.84  2.31
    ##  3  0.23 Good      E     VS1      66.9    65   337  4.05  4.07  2.31
    ##  4  0.29 Premium   I     VS2      72.4    58   344  4.2   4.23  2.63
    ##  5  0.31 Good      J     SI2      73.3    58   345  4.34  4.35  2.75
    ##  6  0.24 Very Good J     VVS2     72.8    57   346  3.94  3.96  2.48
    ##  7  0.24 Very Good I     VVS1     72.3    57   346  3.95  3.98  2.47
    ##  8  0.26 Very Good H     SI1      71.9    55   347  4.07  4.11  2.53
    ##  9  0.22 Fair      E     VS2      75.1    61   347  3.87  3.78  2.49
    ## 10  0.23 Very Good H     VS1      69.4    61   348  4     4.05  2.39
    ## # ... with 53,930 more rows

``` r
diamonds %>% 
  mutate_at(.vars = c("price"), 
            .funs = list(new_price = function(x) x + 10))
```

    ## # A tibble: 53,940 x 11
    ##    carat cut       color clarity depth table price     x     y     z new_price
    ##    <dbl> <ord>     <ord> <ord>   <dbl> <dbl> <int> <dbl> <dbl> <dbl>     <dbl>
    ##  1  0.23 Ideal     E     SI2      61.5    55   326  3.95  3.98  2.43       336
    ##  2  0.21 Premium   E     SI1      59.8    61   326  3.89  3.84  2.31       336
    ##  3  0.23 Good      E     VS1      56.9    65   327  4.05  4.07  2.31       337
    ##  4  0.29 Premium   I     VS2      62.4    58   334  4.2   4.23  2.63       344
    ##  5  0.31 Good      J     SI2      63.3    58   335  4.34  4.35  2.75       345
    ##  6  0.24 Very Good J     VVS2     62.8    57   336  3.94  3.96  2.48       346
    ##  7  0.24 Very Good I     VVS1     62.3    57   336  3.95  3.98  2.47       346
    ##  8  0.26 Very Good H     SI1      61.9    55   337  4.07  4.11  2.53       347
    ##  9  0.22 Fair      E     VS2      65.1    61   337  3.87  3.78  2.49       347
    ## 10  0.23 Very Good H     VS1      59.4    61   338  4     4.05  2.39       348
    ## # ... with 53,930 more rows

``` r
# using mutate across, add $10 to the price. mutate across is the preferred method. 
# use mutate(across( .. rest all should be the same
# mutate(across(.cols = everything(), .fns = NULL, ..., .names = NULL) 

diamonds %>% 
  mutate(across(.cols = "price", 
                .fns = function(x) x + 10))
```

    ## # A tibble: 53,940 x 10
    ##    carat cut       color clarity depth table price     x     y     z
    ##    <dbl> <ord>     <ord> <ord>   <dbl> <dbl> <dbl> <dbl> <dbl> <dbl>
    ##  1  0.23 Ideal     E     SI2      61.5    55   336  3.95  3.98  2.43
    ##  2  0.21 Premium   E     SI1      59.8    61   336  3.89  3.84  2.31
    ##  3  0.23 Good      E     VS1      56.9    65   337  4.05  4.07  2.31
    ##  4  0.29 Premium   I     VS2      62.4    58   344  4.2   4.23  2.63
    ##  5  0.31 Good      J     SI2      63.3    58   345  4.34  4.35  2.75
    ##  6  0.24 Very Good J     VVS2     62.8    57   346  3.94  3.96  2.48
    ##  7  0.24 Very Good I     VVS1     62.3    57   346  3.95  3.98  2.47
    ##  8  0.26 Very Good H     SI1      61.9    55   347  4.07  4.11  2.53
    ##  9  0.22 Fair      E     VS2      65.1    61   347  3.87  3.78  2.49
    ## 10  0.23 Very Good H     VS1      59.4    61   348  4     4.05  2.39
    ## # ... with 53,930 more rows

``` r
# using mutate_if increase price by $10
# mutate_if(.tbl, .predicate, .funs, ...)
diamonds %>% 
  mutate_if(colnames(.) == "price", .funs = function(x) x + 10)
```

    ## # A tibble: 53,940 x 10
    ##    carat cut       color clarity depth table price     x     y     z
    ##    <dbl> <ord>     <ord> <ord>   <dbl> <dbl> <dbl> <dbl> <dbl> <dbl>
    ##  1  0.23 Ideal     E     SI2      61.5    55   336  3.95  3.98  2.43
    ##  2  0.21 Premium   E     SI1      59.8    61   336  3.89  3.84  2.31
    ##  3  0.23 Good      E     VS1      56.9    65   337  4.05  4.07  2.31
    ##  4  0.29 Premium   I     VS2      62.4    58   344  4.2   4.23  2.63
    ##  5  0.31 Good      J     SI2      63.3    58   345  4.34  4.35  2.75
    ##  6  0.24 Very Good J     VVS2     62.8    57   346  3.94  3.96  2.48
    ##  7  0.24 Very Good I     VVS1     62.3    57   346  3.95  3.98  2.47
    ##  8  0.26 Very Good H     SI1      61.9    55   347  4.07  4.11  2.53
    ##  9  0.22 Fair      E     VS2      65.1    61   347  3.87  3.78  2.49
    ## 10  0.23 Very Good H     VS1      59.4    61   348  4     4.05  2.39
    ## # ... with 53,930 more rows

``` r
# using mutate function add a new column to the diamonds dataset called discounted_price to capture discounted price depending on the cut of the diamond.  
# if "Fair" - price*.90, if "Good" - price*.85, if "Very Good" - price*.80, if "Premium" - price*.75, if "Ideal" - price*.75

diamonds %>% 
  mutate(discounted_price = case_when(cut == "Fair" ~ 0.9*price, 
                                      cut == "Good" ~ 0.85*price, 
                                      cut == "Very Good" ~ 0.8*price, 
                                      cut == "Premium" ~ 0.75*price, 
                                      TRUE ~ 0.75*price)
         )
```

    ## # A tibble: 53,940 x 11
    ##    carat cut       color clarity depth table price     x     y     z
    ##    <dbl> <ord>     <ord> <ord>   <dbl> <dbl> <int> <dbl> <dbl> <dbl>
    ##  1  0.23 Ideal     E     SI2      61.5    55   326  3.95  3.98  2.43
    ##  2  0.21 Premium   E     SI1      59.8    61   326  3.89  3.84  2.31
    ##  3  0.23 Good      E     VS1      56.9    65   327  4.05  4.07  2.31
    ##  4  0.29 Premium   I     VS2      62.4    58   334  4.2   4.23  2.63
    ##  5  0.31 Good      J     SI2      63.3    58   335  4.34  4.35  2.75
    ##  6  0.24 Very Good J     VVS2     62.8    57   336  3.94  3.96  2.48
    ##  7  0.24 Very Good I     VVS1     62.3    57   336  3.95  3.98  2.47
    ##  8  0.26 Very Good H     SI1      61.9    55   337  4.07  4.11  2.53
    ##  9  0.22 Fair      E     VS2      65.1    61   337  3.87  3.78  2.49
    ## 10  0.23 Very Good H     VS1      59.4    61   338  4     4.05  2.39
    ## # ... with 53,930 more rows, and 1 more variable: discounted_price <dbl>

``` r
# sort the diamonds dataset by cut column and select, price, cut and depth columns 
diamonds %>% 
  arrange(desc(cut)) %>% 
  select(price, cut, depth)
```

    ## # A tibble: 53,940 x 3
    ##    price cut   depth
    ##    <int> <ord> <dbl>
    ##  1   326 Ideal  61.5
    ##  2   340 Ideal  62.8
    ##  3   344 Ideal  62.2
    ##  4   348 Ideal  62  
    ##  5   403 Ideal  61.8
    ##  6   403 Ideal  61.2
    ##  7   403 Ideal  61.1
    ##  8   404 Ideal  61.9
    ##  9   404 Ideal  60.9
    ## 10   405 Ideal  61  
    ## # ... with 53,930 more rows
…
``` r
# create a union of the diamonds1 and diamonds2 datasets
# Look at the cheatsheet for understanding these functions. Also, please pay attention to the intersect function you are using. 
diamonds1 <- diamonds[diamonds$depth < 50,]
diamonds2 <- diamonds[diamonds$depth < 55,]
diamonds1 %>%
  dplyr::union(diamonds2)
```

    ## # A tibble: 22 x 10
    ##    carat cut   color clarity depth table price     x     y     z
    ##    <dbl> <ord> <ord> <ord>   <dbl> <dbl> <int> <dbl> <dbl> <dbl>
    ##  1  1    Fair  G     SI1      43      59  3634  6.32  6.27  3.97
    ##  2  1    Fair  G     VS2      44      53  4032  6.31  6.24  4.12
    ##  3  1.09 Ideal J     VS2      43      54  4778  6.53  6.55  4.12
    ##  4  0.96 Fair  E     SI2      53.1    63  2815  6.73  6.65  3.55
    ##  5  0.98 Fair  E     SI2      53.3    67  2855  6.82  6.74  3.61
    ##  6  1.02 Fair  I     SI1      53      63  2856  6.84  6.77  3.66
    ##  7  1.08 Fair  E     SI1      53.8    63  4790  6.99  6.81  3.71
    ##  8  1.26 Fair  G     SI2      53.2    61  4966  7.44  7.36  3.94
    ##  9  1.43 Fair  I     VS1      50.8    60  6727  7.73  7.25  3.93
    ## 10  0.31 Fair  E     VS2      54.2    63   814  4.61  4.51  2.47
    ## # ... with 12 more rows
…
